%YAML 1.1
%TAG !u! tag:unity3d.com,2011:
--- !u!114 &11400000
MonoBehaviour:
  m_ObjectHideFlags: 0
  m_CorrespondingSourceObject: {fileID: 0}
  m_PrefabInstance: {fileID: 0}
  m_PrefabAsset: {fileID: 0}
  m_GameObject: {fileID: 0}
  m_Enabled: 1
  m_EditorHideFlags: 0
  m_Script: {fileID: 11500000, guid: b7eb5c8b4a567e0458107a5d2f94722b, type: 3}
  m_Name: 1_Basic_2_Normal_1_Triple
  m_EditorClassIdentifier: 
  EnemyList: 00000000010000000100000004000000
