%YAML 1.1
%TAG !u! tag:unity3d.com,2011:
--- !u!114 &11400000
MonoBehaviour:
  m_ObjectHideFlags: 0
  m_CorrespondingSourceObject: {fileID: 0}
  m_PrefabInstance: {fileID: 0}
  m_PrefabAsset: {fileID: 0}
  m_GameObject: {fileID: 0}
  m_Enabled: 1
  m_EditorHideFlags: 0
  m_Script: {fileID: 11500000, guid: b7eb5c8b4a567e0458107a5d2f94722b, type: 3}
  m_Name: 2_Basic_1_Normal_2_Basic
  m_EditorClassIdentifier: 
  EnemyList: 0000000000000000010000000000000000000000
